{ 
  "default": {
    "250":{
      "label": "250 €",
      "value" : 250,    
      "pos":"min"
    },
    "2400":{
      "label": "2.400 €",
      "value" : 2400,
      "pos":"max"
    }
  },
  "rate":
  {
    "250":{
      "3":"3 mesi"  
    },
    "750":{
      "3":"3 mesi",
      "6":"6 mesi"
    },
    "1000":{
      "3":"3 mesi",
      "6":"6 mesi",
      "9":"9 mesi"
    },
    "1250":{
      "3":"3 mesi",
      "6":"6 mesi",
      "9":"9 mesi",
      "12":"12 mesi"
    },
    "1500":{
      "3":"3 mesi",
      "6":"6 mesi",
      "9":"9 mesi",
      "12":"12 mesi",
      "18":"18 mesi"
    },
    "2400":{
      "3":"3 mesi",
      "6":"6 mesi",
      "9":"9 mesi",
      "12":"12 mesi",
      "18":"18 mesi",
      "24":"24 mesi"
    }
  }
}